-------------------------------------------------------------------------------
Test set: org.apache.commons.lang3.StringEscapeUtilsTest
-------------------------------------------------------------------------------
Tests run: 25, Failures: 0, Errors: 0, Skipped: 0, Time elapsed: 0.186 sec
